{
  "count": 26544,
  "next": "https://api.octopus.energy/v1/products/AGILE-24-10-01/electricity-tariffs/E-1R-AGILE-24-10-01-M/standard-unit-rates/?page=2",
  "previous": null,
  "results": [
    {
      "value_exc_vat": 23.68,
      "value_inc_vat": 24.864,
      "valid_from": "2026-03-22T22:30:00Z",
      "valid_to": "2026-03-22T23:00:00Z",
      "payment_method": null
    },
    {
      "value_exc_vat": 23.8,
      "value_inc_vat": 24.99,
      "valid_from": "2026-03-22T22:00:00Z",
      "valid_to": "2026-03-22T22:30:00Z",
      "payment_method": null
    },
    {
      "value_exc_vat": 22.92,
      "value_inc_vat": 24.066,
      "valid_from": "2026-03-22T21:30:00Z",
      "valid_to": "2026-03-22T22:00:00Z",
      "payment_method": null
    },
    {
      "value_exc_vat": 25.2,
      "value_inc_vat": 26.46,
      "valid_from": "2026-03-22T21:00:00Z",
      "valid_to": "2026-03-22T21:30:00Z",
      "payment_method": null
    },
    {
      "value_exc_vat": 25.46,
      "value_inc_vat": 26.733,
      "valid_from": "2026-03-22T20:30:00Z",
      "valid_to": "2026-03-22T21:00:00Z",
      "payment_method": null
    },
    {
      "value_exc_vat": 28.6,
      "value_inc_vat": 30.03,
      "valid_from": "2026-03-22T20:00:00Z",
      "valid_to": "2026-03-22T20:30:00Z",
      "payment_method": null
    },
    {
      "value_exc_vat": 27.9,
      "value_inc_vat": 29.295,
      "valid_from": "2026-03-22T19:30:00Z",
      "valid_to": "2026-03-22T20:00:00Z",
      "payment_method": null
    },
    {
      "value_exc_vat": 28.4,
      "value_inc_vat": 29.82,
      "valid_from": "2026-03-22T19:00:00Z",
      "valid_to": "2026-03-22T19:30:00Z",
      "payment_method": null
    },
    {
      "value_exc_vat": 43.2,
      "value_inc_vat": 45.36,
      "valid_from": "2026-03-22T18:30:00Z",
      "valid_to": "2026-03-22T19:00:00Z",
      "payment_method": null
    },
    {
      "value_exc_vat": 43.2,
      "value_inc_vat": 45.36,
      "valid_from": "2026-03-22T18:00:00Z",
      "valid_to": "2026-03-22T18:30:00Z",
      "payment_method": null
    },
    {
      "value_exc_vat": 42.86,
      "value_inc_vat": 45.003,
      "valid_from": "2026-03-22T17:30:00Z",
      "valid_to": "2026-03-22T18:00:00Z",
      "payment_method": null
    },
    {
      "value_exc_vat": 41.65,
      "value_inc_vat": 43.7325,
      "valid_from": "2026-03-22T17:00:00Z",
      "valid_to": "2026-03-22T17:30:00Z",
      "payment_method": null
    },
    {
      "value_exc_vat": 38.32,
      "value_inc_vat": 40.236,
      "valid_from": "2026-03-22T16:30:00Z",
      "valid_to": "2026-03-22T17:00:00Z",
      "payment_method": null
    },
    {
      "value_exc_vat": 37.14,
      "value_inc_vat": 38.997,
      "valid_from": "2026-03-22T16:00:00Z",
      "valid_to": "2026-03-22T16:30:00Z",
      "payment_method": null
    },
    {
      "value_exc_vat": 23.0,
      "value_inc_vat": 24.15,
      "valid_from": "2026-03-22T15:30:00Z",
      "valid_to": "2026-03-22T16:00:00Z",
      "payment_method": null
    },
    {
      "value_exc_vat": 22.7,
      "value_inc_vat": 23.835,
      "valid_from": "2026-03-22T15:00:00Z",
      "valid_to": "2026-03-22T15:30:00Z",
      "payment_method": null
    },
    {
      "value_exc_vat": 22.23,
      "value_inc_vat": 23.3415,
      "valid_from": "2026-03-22T14:30:00Z",
      "valid_to": "2026-03-22T15:00:00Z",
      "payment_method": null
    },
    {
      "value_exc_vat": 22.19,
      "value_inc_vat": 23.2995,
      "valid_from": "2026-03-22T14:00:00Z",
      "valid_to": "2026-03-22T14:30:00Z",
      "payment_method": null
    },
    {
      "value_exc_vat": 21.8,
      "value_inc_vat": 22.89,
      "valid_from": "2026-03-22T13:30:00Z",
      "valid_to": "2026-03-22T14:00:00Z",
      "payment_method": null
    },
    {
      "value_exc_vat": 22.2,
      "value_inc_vat": 23.31,
      "valid_from": "2026-03-22T13:00:00Z",
      "valid_to": "2026-03-22T13:30:00Z",
      "payment_method": null
    },
    {
      "value_exc_vat": 22.0,
      "value_inc_vat": 23.1,
      "valid_from": "2026-03-22T12:30:00Z",
      "valid_to": "2026-03-22T13:00:00Z",
      "payment_method": null
    },
    {
      "value_exc_vat": 21.65,
      "value_inc_vat": 22.7325,
      "valid_from": "2026-03-22T12:00:00Z",
      "valid_to": "2026-03-22T12:30:00Z",
      "payment_method": null
    },
    {
      "value_exc_vat": 21.76,
      "value_inc_vat": 22.848,
      "valid_from": "2026-03-22T11:30:00Z",
      "valid_to": "2026-03-22T12:00:00Z",
      "payment_method": null
    },
    {
      "value_exc_vat": 21.55,
      "value_inc_vat": 22.6275,
      "valid_from": "2026-03-22T11:00:00Z",
      "valid_to": "2026-03-22T11:30:00Z",
      "payment_method": null
    },
    {
      "value_exc_vat": 23.0,
      "value_inc_vat": 24.15,
      "valid_from": "2026-03-22T10:30:00Z",
      "valid_to": "2026-03-22T11:00:00Z",
      "payment_method": null
    },
    {
      "value_exc_vat": 23.07,
      "value_inc_vat": 24.2235,
      "valid_from": "2026-03-22T10:00:00Z",
      "valid_to": "2026-03-22T10:30:00Z",
      "payment_method": null
    },
    {
      "value_exc_vat": 23.27,
      "value_inc_vat": 24.4335,
      "valid_from": "2026-03-22T09:30:00Z",
      "valid_to": "2026-03-22T10:00:00Z",
      "payment_method": null
    },
    {
      "value_exc_vat": 24.26,
      "value_inc_vat": 25.473,
      "valid_from": "2026-03-22T09:00:00Z",
      "valid_to": "2026-03-22T09:30:00Z",
      "payment_method": null
    },
    {
      "value_exc_vat": 24.85,
      "value_inc_vat": 26.0925,
      "valid_from": "2026-03-22T08:30:00Z",
      "valid_to": "2026-03-22T09:00:00Z",
      "payment_method": null
    },
    {
      "value_exc_vat": 23.4,
      "value_inc_vat": 24.57,
      "valid_from": "2026-03-22T08:00:00Z",
      "valid_to": "2026-03-22T08:30:00Z",
      "payment_method": null
    },
    {
      "value_exc_vat": 23.8,
      "value_inc_vat": 24.99,
      "valid_from": "2026-03-22T07:30:00Z",
      "valid_to": "2026-03-22T08:00:00Z",
      "payment_method": null
    },
    {
      "value_exc_vat": 23.6,
      "value_inc_vat": 24.78,
      "valid_from": "2026-03-22T07:00:00Z",
      "valid_to": "2026-03-22T07:30:00Z",
      "payment_method": null
    },
    {
      "value_exc_vat": 22.53,
      "value_inc_vat": 23.6565,
      "valid_from": "2026-03-22T06:30:00Z",
      "valid_to": "2026-03-22T07:00:00Z",
      "payment_method": null
    },
    {
      "value_exc_vat": 21.6,
      "value_inc_vat": 22.68,
      "valid_from": "2026-03-22T06:00:00Z",
      "valid_to": "2026-03-22T06:30:00Z",
      "payment_method": null
    },
    {
      "value_exc_vat": 21.0,
      "value_inc_vat": 22.05,
      "valid_from": "2026-03-22T05:30:00Z",
      "valid_to": "2026-03-22T06:00:00Z",
      "payment_method": null
    },
    {
      "value_exc_vat": 21.04,
      "value_inc_vat": 22.092,
      "valid_from": "2026-03-22T05:00:00Z",
      "valid_to": "2026-03-22T05:30:00Z",
      "payment_method": null
    },
    {
      "value_exc_vat": 20.95,
      "value_inc_vat": 21.9975,
      "valid_from": "2026-03-22T04:30:00Z",
      "valid_to": "2026-03-22T05:00:00Z",
      "payment_method": null
    },
    {
      "value_exc_vat": 20.62,
      "value_inc_vat": 21.651,
      "valid_from": "2026-03-22T04:00:00Z",
      "valid_to": "2026-03-22T04:30:00Z",
      "payment_method": null
    },
    {
      "value_exc_vat": 19.82,
      "value_inc_vat": 20.811,
      "valid_from": "2026-03-22T03:30:00Z",
      "valid_to": "2026-03-22T04:00:00Z",
      "payment_method": null
    },
    {
      "value_exc_vat": 21.2,
      "value_inc_vat": 22.26,
      "valid_from": "2026-03-22T03:00:00Z",
      "valid_to": "2026-03-22T03:30:00Z",
      "payment_method": null
    },
    {
      "value_exc_vat": 21.98,
      "value_inc_vat": 23.079,
      "valid_from": "2026-03-22T02:30:00Z",
      "valid_to": "2026-03-22T03:00:00Z",
      "payment_method": null
    },
    {
      "value_exc_vat": 22.15,
      "value_inc_vat": 23.2575,
      "valid_from": "2026-03-22T02:00:00Z",
      "valid_to": "2026-03-22T02:30:00Z",
      "payment_method": null
    },
    {
      "value_exc_vat": 22.56,
      "value_inc_vat": 23.688,
      "valid_from": "2026-03-22T01:30:00Z",
      "valid_to": "2026-03-22T02:00:00Z",
      "payment_method": null
    },
    {
      "value_exc_vat": 23.18,
      "value_inc_vat": 24.339,
      "valid_from": "2026-03-22T01:00:00Z",
      "valid_to": "2026-03-22T01:30:00Z",
      "payment_method": null
    },
    {
      "value_exc_vat": 23.48,
      "value_inc_vat": 24.654,
      "valid_from": "2026-03-22T00:30:00Z",
      "valid_to": "2026-03-22T01:00:00Z",
      "payment_method": null
    },
    {
      "value_exc_vat": 22.53,
      "value_inc_vat": 23.6565,
      "valid_from": "2026-03-22T00:00:00Z",
      "valid_to": "2026-03-22T00:30:00Z",
      "payment_method": null
    },
    {
      "value_exc_vat": 22.6,
      "value_inc_vat": 23.73,
      "valid_from": "2026-03-21T23:30:00Z",
      "valid_to": "2026-03-22T00:00:00Z",
      "payment_method": null
    },
    {
      "value_exc_vat": 24.35,
      "value_inc_vat": 25.5675,
      "valid_from": "2026-03-21T23:00:00Z",
      "valid_to": "2026-03-21T23:30:00Z",
      "payment_method": null
    },
    {
      "value_exc_vat": 22.43,
      "value_inc_vat": 23.5515,
      "valid_from": "2026-03-21T22:30:00Z",
      "valid_to": "2026-03-21T23:00:00Z",
      "payment_method": null
    },
    {
      "value_exc_vat": 23.51,
      "value_inc_vat": 24.6855,
      "valid_from": "2026-03-21T22:00:00Z",
      "valid_to": "2026-03-21T22:30:00Z",
      "payment_method": null
    },
    {
      "value_exc_vat": 23.29,
      "value_inc_vat": 24.4545,
      "valid_from": "2026-03-21T21:30:00Z",
      "valid_to": "2026-03-21T22:00:00Z",
      "payment_method": null
    },
    {
      "value_exc_vat": 26.4,
      "value_inc_vat": 27.72,
      "valid_from": "2026-03-21T21:00:00Z",
      "valid_to": "2026-03-21T21:30:00Z",
      "payment_method": null
    },
    {
      "value_exc_vat": 25.8,
      "value_inc_vat": 27.09,
      "valid_from": "2026-03-21T20:30:00Z",
      "valid_to": "2026-03-21T21:00:00Z",
      "payment_method": null
    },
    {
      "value_exc_vat": 30.0,
      "value_inc_vat": 31.5,
      "valid_from": "2026-03-21T20:00:00Z",
      "valid_to": "2026-03-21T20:30:00Z",
      "payment_method": null
    },
    {
      "value_exc_vat": 30.18,
      "value_inc_vat": 31.689,
      "valid_from": "2026-03-21T19:30:00Z",
      "valid_to": "2026-03-21T20:00:00Z",
      "payment_method": null
    },
    {
      "value_exc_vat": 30.6,
      "value_inc_vat": 32.13,
      "valid_from": "2026-03-21T19:00:00Z",
      "valid_to": "2026-03-21T19:30:00Z",
      "payment_method": null
    },
    {
      "value_exc_vat": 44.0,
      "value_inc_vat": 46.2,
      "valid_from": "2026-03-21T18:30:00Z",
      "valid_to": "2026-03-21T19:00:00Z",
      "payment_method": null
    },
    {
      "value_exc_vat": 43.4,
      "value_inc_vat": 45.57,
      "valid_from": "2026-03-21T18:00:00Z",
      "valid_to": "2026-03-21T18:30:00Z",
      "payment_method": null
    },
    {
      "value_exc_vat": 44.0,
      "value_inc_vat": 46.2,
      "valid_from": "2026-03-21T17:30:00Z",
      "valid_to": "2026-03-21T18:00:00Z",
      "payment_method": null
    },
    {
      "value_exc_vat": 42.91,
      "value_inc_vat": 45.0555,
      "valid_from": "2026-03-21T17:00:00Z",
      "valid_to": "2026-03-21T17:30:00Z",
      "payment_method": null
    },
    {
      "value_exc_vat": 39.58,
      "value_inc_vat": 41.559,
      "valid_from": "2026-03-21T16:30:00Z",
      "valid_to": "2026-03-21T17:00:00Z",
      "payment_method": null
    },
    {
      "value_exc_vat": 38.0,
      "value_inc_vat": 39.9,
      "valid_from": "2026-03-21T16:00:00Z",
      "valid_to": "2026-03-21T16:30:00Z",
      "payment_method": null
    },
    {
      "value_exc_vat": 21.58,
      "value_inc_vat": 22.659,
      "valid_from": "2026-03-21T15:30:00Z",
      "valid_to": "2026-03-21T16:00:00Z",
      "payment_method": null
    },
    {
      "value_exc_vat": 20.46,
      "value_inc_vat": 21.483,
      "valid_from": "2026-03-21T15:00:00Z",
      "valid_to": "2026-03-21T15:30:00Z",
      "payment_method": null
    },
    {
      "value_exc_vat": 21.62,
      "value_inc_vat": 22.701,
      "valid_from": "2026-03-21T14:30:00Z",
      "valid_to": "2026-03-21T15:00:00Z",
      "payment_method": null
    },
    {
      "value_exc_vat": 21.57,
      "value_inc_vat": 22.6485,
      "valid_from": "2026-03-21T14:00:00Z",
      "valid_to": "2026-03-21T14:30:00Z",
      "payment_method": null
    },
    {
      "value_exc_vat": 21.35,
      "value_inc_vat": 22.4175,
      "valid_from": "2026-03-21T13:30:00Z",
      "valid_to": "2026-03-21T14:00:00Z",
      "payment_method": null
    },
    {
      "value_exc_vat": 21.45,
      "value_inc_vat": 22.5225,
      "valid_from": "2026-03-21T13:00:00Z",
      "valid_to": "2026-03-21T13:30:00Z",
      "payment_method": null
    },
    {
      "value_exc_vat": 21.74,
      "value_inc_vat": 22.827,
      "valid_from": "2026-03-21T12:30:00Z",
      "valid_to": "2026-03-21T13:00:00Z",
      "payment_method": null
    },
    {
      "value_exc_vat": 21.94,
      "value_inc_vat": 23.037,
      "valid_from": "2026-03-21T12:00:00Z",
      "valid_to": "2026-03-21T12:30:00Z",
      "payment_method": null
    },
    {
      "value_exc_vat": 22.0,
      "value_inc_vat": 23.1,
      "valid_from": "2026-03-21T11:30:00Z",
      "valid_to": "2026-03-21T12:00:00Z",
      "payment_method": null
    },
    {
      "value_exc_vat": 22.35,
      "value_inc_vat": 23.4675,
      "valid_from": "2026-03-21T11:00:00Z",
      "valid_to": "2026-03-21T11:30:00Z",
      "payment_method": null
    },
    {
      "value_exc_vat": 23.15,
      "value_inc_vat": 24.3075,
      "valid_from": "2026-03-21T10:30:00Z",
      "valid_to": "2026-03-21T11:00:00Z",
      "payment_method": null
    },
    {
      "value_exc_vat": 25.0,
      "value_inc_vat": 26.25,
      "valid_from": "2026-03-21T10:00:00Z",
      "valid_to": "2026-03-21T10:30:00Z",
      "payment_method": null
    },
    {
      "value_exc_vat": 25.6,
      "value_inc_vat": 26.88,
      "valid_from": "2026-03-21T09:30:00Z",
      "valid_to": "2026-03-21T10:00:00Z",
      "payment_method": null
    },
    {
      "value_exc_vat": 25.53,
      "value_inc_vat": 26.8065,
      "valid_from": "2026-03-21T09:00:00Z",
      "valid_to": "2026-03-21T09:30:00Z",
      "payment_method": null
    },
    {
      "value_exc_vat": 25.79,
      "value_inc_vat": 27.0795,
      "valid_from": "2026-03-21T08:30:00Z",
      "valid_to": "2026-03-21T09:00:00Z",
      "payment_method": null
    },
    {
      "value_exc_vat": 25.86,
      "value_inc_vat": 27.153,
      "valid_from": "2026-03-21T08:00:00Z",
      "valid_to": "2026-03-21T08:30:00Z",
      "payment_method": null
    },
    {
      "value_exc_vat": 26.25,
      "value_inc_vat": 27.5625,
      "valid_from": "2026-03-21T07:30:00Z",
      "valid_to": "2026-03-21T08:00:00Z",
      "payment_method": null
    },
    {
      "value_exc_vat": 26.0,
      "value_inc_vat": 27.3,
      "valid_from": "2026-03-21T07:00:00Z",
      "valid_to": "2026-03-21T07:30:00Z",
      "payment_method": null
    },
    {
      "value_exc_vat": 25.78,
      "value_inc_vat": 27.069,
      "valid_from": "2026-03-21T06:30:00Z",
      "valid_to": "2026-03-21T07:00:00Z",
      "payment_method": null
    },
    {
      "value_exc_vat": 24.34,
      "value_inc_vat": 25.557,
      "valid_from": "2026-03-21T06:00:00Z",
      "valid_to": "2026-03-21T06:30:00Z",
      "payment_method": null
    },
    {
      "value_exc_vat": 23.4,
      "value_inc_vat": 24.57,
      "valid_from": "2026-03-21T05:30:00Z",
      "valid_to": "2026-03-21T06:00:00Z",
      "payment_method": null
    },
    {
      "value_exc_vat": 23.56,
      "value_inc_vat": 24.738,
      "valid_from": "2026-03-21T05:00:00Z",
      "valid_to": "2026-03-21T05:30:00Z",
      "payment_method": null
    },
    {
      "value_exc_vat": 22.43,
      "value_inc_vat": 23.5515,
      "valid_from": "2026-03-21T04:30:00Z",
      "valid_to": "2026-03-21T05:00:00Z",
      "payment_method": null
    },
    {
      "value_exc_vat": 23.2,
      "value_inc_vat": 24.36,
      "valid_from": "2026-03-21T04:00:00Z",
      "valid_to": "2026-03-21T04:30:00Z",
      "payment_method": null
    },
    {
      "value_exc_vat": 22.43,
      "value_inc_vat": 23.5515,
      "valid_from": "2026-03-21T03:30:00Z",
      "valid_to": "2026-03-21T04:00:00Z",
      "payment_method": null
    },
    {
      "value_exc_vat": 23.14,
      "value_inc_vat": 24.297,
      "valid_from": "2026-03-21T03:00:00Z",
      "valid_to": "2026-03-21T03:30:00Z",
      "payment_method": null
    },
    {
      "value_exc_vat": 22.8,
      "value_inc_vat": 23.94,
      "valid_from": "2026-03-21T02:30:00Z",
      "valid_to": "2026-03-21T03:00:00Z",
      "payment_method": null
    },
    {
      "value_exc_vat": 23.74,
      "value_inc_vat": 24.927,
      "valid_from": "2026-03-21T02:00:00Z",
      "valid_to": "2026-03-21T02:30:00Z",
      "payment_method": null
    },
    {
      "value_exc_vat": 22.62,
      "value_inc_vat": 23.751,
      "valid_from": "2026-03-21T01:30:00Z",
      "valid_to": "2026-03-21T02:00:00Z",
      "payment_method": null
    },
    {
      "value_exc_vat": 24.62,
      "value_inc_vat": 25.851,
      "valid_from": "2026-03-21T01:00:00Z",
      "valid_to": "2026-03-21T01:30:00Z",
      "payment_method": null
    },
    {
      "value_exc_vat": 25.6,
      "value_inc_vat": 26.88,
      "valid_from": "2026-03-21T00:30:00Z",
      "valid_to": "2026-03-21T01:00:00Z",
      "payment_method": null
    },
    {
      "value_exc_vat": 22.85,
      "value_inc_vat": 23.9925,
      "valid_from": "2026-03-21T00:00:00Z",
      "valid_to": "2026-03-21T00:30:00Z",
      "payment_method": null
    },
    {
      "value_exc_vat": 23.18,
      "value_inc_vat": 24.339,
      "valid_from": "2026-03-20T23:30:00Z",
      "valid_to": "2026-03-21T00:00:00Z",
      "payment_method": null
    },
    {
      "value_exc_vat": 24.17,
      "value_inc_vat": 25.3785,
      "valid_from": "2026-03-20T23:00:00Z",
      "valid_to": "2026-03-20T23:30:00Z",
      "payment_method": null
    },
    {
      "value_exc_vat": 24.34,
      "value_inc_vat": 25.557,
      "valid_from": "2026-03-20T22:30:00Z",
      "valid_to": "2026-03-20T23:00:00Z",
      "payment_method": null
    },
    {
      "value_exc_vat": 26.66,
      "value_inc_vat": 27.993,
      "valid_from": "2026-03-20T22:00:00Z",
      "valid_to": "2026-03-20T22:30:00Z",
      "payment_method": null
    },
    {
      "value_exc_vat": 24.0,
      "value_inc_vat": 25.2,
      "valid_from": "2026-03-20T21:30:00Z",
      "valid_to": "2026-03-20T22:00:00Z",
      "payment_method": null
    },
    {
      "value_exc_vat": 28.0,
      "value_inc_vat": 29.4,
      "valid_from": "2026-03-20T21:00:00Z",
      "valid_to": "2026-03-20T21:30:00Z",
      "payment_method": null
    }
  ]
}
